…
    ## date created (size, mb): 2023-10-01 12:59:35.20628 (3.83)

    ## file min/max dates: 1949-10-01 / 2023-09-30

    ## using cached file: /Users/BettyWu/Library/Caches/org.R-project.R/R/rnoaa/noaa_ghcnd/USS0023B17S.dly

    ## date created (size, mb): 2023-10-01 12:59:38.078047 (0.994)

    ## file min/max dates: 1999-09-01 / 2023-09-30

``` r
weather_df
```

    ## # A tibble: 1,914 × 7
    ##    name           id          date        prcp  tmax  tmin month     
    ##    <chr>          <chr>       <date>     <dbl> <dbl> <dbl> <date>    
    ##  1 CentralPark_NY USW00094728 2022-01-01   201  13.3  10   2022-01-01
    ##  2 CentralPark_NY USW00094728 2022-01-02    10  15     2.8 2022-01-01
    ##  3 CentralPark_NY USW00094728 2022-01-03     0   2.8  -5.5 2022-01-01
    ##  4 CentralPark_NY USW00094728 2022-01-04     0   1.1  -7.1 2022-01-01
    ##  5 CentralPark_NY USW00094728 2022-01-05    58   8.3  -0.5 2022-01-01
    ##  6 CentralPark_NY USW00094728 2022-01-06     0   5     1.1 2022-01-01
    ##  7 CentralPark_NY USW00094728 2022-01-07    97   1.1  -3.8 2022-01-01
    ##  8 CentralPark_NY USW00094728 2022-01-08     0  -1    -6.6 2022-01-01
    ##  9 CentralPark_NY USW00094728 2022-01-09    25   4.4  -1.6 2022-01-01
    ## 10 CentralPark_NY USW00094728 2022-01-10     0   4.4  -4.3 2022-01-01
    ## # ℹ 1,904 more rows
…
<img src="EDA_files/figure-gfm/unnamed-chunk-5-1.png" width="90%" />

## Grouping

``` r
weather_df |>
  group_by(name, month)
```

    ## # A tibble: 1,914 × 7
    ## # Groups:   name, month [63]
    ##    name           id          date        prcp  tmax  tmin month     
    ##    <chr>          <chr>       <date>     <dbl> <dbl> <dbl> <date>    
    ##  1 CentralPark_NY USW00094728 2022-01-01   201  13.3  10   2022-01-01
    ##  2 CentralPark_NY USW00094728 2022-01-02    10  15     2.8 2022-01-01
    ##  3 CentralPark_NY USW00094728 2022-01-03     0   2.8  -5.5 2022-01-01
    ##  4 CentralPark_NY USW00094728 2022-01-04     0   1.1  -7.1 2022-01-01
    ##  5 CentralPark_NY USW00094728 2022-01-05    58   8.3  -0.5 2022-01-01
    ##  6 CentralPark_NY USW00094728 2022-01-06     0   5     1.1 2022-01-01
    ##  7 CentralPark_NY USW00094728 2022-01-07    97   1.1  -3.8 2022-01-01
    ##  8 CentralPark_NY USW00094728 2022-01-08     0  -1    -6.6 2022-01-01
    ##  9 CentralPark_NY USW00094728 2022-01-09    25   4.4  -1.6 2022-01-01
    ## 10 CentralPark_NY USW00094728 2022-01-10     0   4.4  -4.3 2022-01-01
    ## # ℹ 1,904 more rows

``` r
weather_df |>
  group_by(month) |>
  summarize(n_obs = n())
```

    ## # A tibble: 21 × 2
    ##    month      n_obs
    ##    <date>     <int>
    ##  1 2022-01-01    93
    ##  2 2022-02-01    84
    ##  3 2022-03-01    93
    ##  4 2022-04-01    90
    ##  5 2022-05-01    93
    ##  6 2022-06-01    90
    ##  7 2022-07-01    93
    ##  8 2022-08-01    93
    ##  9 2022-09-01    90
    ## 10 2022-10-01    93
    ## # ℹ 11 more rows

``` r
weather_df |>
  group_by(name, month) |>
  summarize(n_obs = n())
```

    ## `summarise()` has grouped output by 'name'. You can override using the
    ## `.groups` argument.

    ## # A tibble: 63 × 3
    ## # Groups:   name [3]
    ##    name           month      n_obs
    ##    <chr>          <date>     <int>
    ##  1 CentralPark_NY 2022-01-01    31
    ##  2 CentralPark_NY 2022-02-01    28
    ##  3 CentralPark_NY 2022-03-01    31
    ##  4 CentralPark_NY 2022-04-01    30
    ##  5 CentralPark_NY 2022-05-01    31
    ##  6 CentralPark_NY 2022-06-01    30
    ##  7 CentralPark_NY 2022-07-01    31
    ##  8 CentralPark_NY 2022-08-01    31
    ##  9 CentralPark_NY 2022-09-01    30
    ## 10 CentralPark_NY 2022-10-01    31
    ## # ℹ 53 more rows

### Counting

``` r
weather_df |>
  count(month, name = "n_obs") 
```

    ## # A tibble: 21 × 2
    ##    month      n_obs
    ##    <date>     <int>
    ##  1 2022-01-01    93
    ##  2 2022-02-01    84
    ##  3 2022-03-01    93
    ##  4 2022-04-01    90
    ##  5 2022-05-01    93
    ##  6 2022-06-01    90
    ##  7 2022-07-01    93
    ##  8 2022-08-01    93
    ##  9 2022-09-01    90
    ## 10 2022-10-01    93
    ## # ℹ 11 more rows

``` r
weather_df |>
  count(name, month) |>
  pivot_wider(
    names_from = name,
    values_from = n
  )
```

    ## # A tibble: 21 × 4
    ##    month      CentralPark_NY Molokai_HI Waterhole_WA
    ##    <date>              <int>      <int>        <int>
    ##  1 2022-01-01             31         31           31
    ##  2 2022-02-01             28         28           28
    ##  3 2022-03-01             31         31           31
    ##  4 2022-04-01             30         30           30
    ##  5 2022-05-01             31         31           31
    ##  6 2022-06-01             30         30           30
    ##  7 2022-07-01             31         31           31
    ##  8 2022-08-01             31         31           31
    ##  9 2022-09-01             30         30           30
    ## 10 2022-10-01             31         31           31
    ## # ℹ 11 more rows

## General summaries

``` r
weather_df |>
  group_by(month) |>
  summarize(
    mean_tmax = mean(tmax, na.rm = TRUE),
    midian_tmax = mean(tmax, na.rm = TRUE),
    n_obs = n(),
    n_days = n_distinct(date))
```

    ## # A tibble: 21 × 5
    ##    month      mean_tmax midian_tmax n_obs n_days
    ##    <date>         <dbl>       <dbl> <int>  <int>
    ##  1 2022-01-01      11.0        11.0    93     31
    ##  2 2022-02-01      12.6        12.6    84     28
    ##  3 2022-03-01      14.4        14.4    93     31
    ##  4 2022-04-01      15.3        15.3    90     30
    ##  5 2022-05-01      18.7        18.7    93     31
    ##  6 2022-06-01      22.1        22.1    90     30
    ##  7 2022-07-01      25.4        25.4    93     31
    ##  8 2022-08-01      27.7        27.7    93     31
    ##  9 2022-09-01      23.5        23.5    90     30
    ## 10 2022-10-01      19.5        19.5    93     31
    ## # ℹ 11 more rows
…
    ## Warning: Removed 21 rows containing missing values (`geom_point()`).

<img src="EDA_files/figure-gfm/unnamed-chunk-12-1.png" width="90%" />

lags: gives yesterday’s data

``` r
weather_df |>
  group_by(name) |>
  mutate(temp_change = tmax - lag(tmax))
```

    ## # A tibble: 1,914 × 8
    ## # Groups:   name [3]
    ##    name           id         date        prcp  tmax  tmin month      temp_change
    ##    <chr>          <chr>      <date>     <dbl> <dbl> <dbl> <date>           <dbl>
    ##  1 CentralPark_NY USW000947… 2022-01-01   201  13.3  10   2022-01-01        NA  
    ##  2 CentralPark_NY USW000947… 2022-01-02    10  15     2.8 2022-01-01         1.7
    ##  3 CentralPark_NY USW000947… 2022-01-03     0   2.8  -5.5 2022-01-01       -12.2
    ##  4 CentralPark_NY USW000947… 2022-01-04     0   1.1  -7.1 2022-01-01        -1.7
    ##  5 CentralPark_NY USW000947… 2022-01-05    58   8.3  -0.5 2022-01-01         7.2
    ##  6 CentralPark_NY USW000947… 2022-01-06     0   5     1.1 2022-01-01        -3.3
    ##  7 CentralPark_NY USW000947… 2022-01-07    97   1.1  -3.8 2022-01-01        -3.9
    ##  8 CentralPark_NY USW000947… 2022-01-08     0  -1    -6.6 2022-01-01        -2.1
    ##  9 CentralPark_NY USW000947… 2022-01-09    25   4.4  -1.6 2022-01-01         5.4
    ## 10 CentralPark_NY USW000947… 2022-01-10     0   4.4  -4.3 2022-01-01         0  
    ## # ℹ 1,904 more rows
…
