…
    ## date created (size, mb): 2023-10-01 09:59:35.20628 (3.83)

    ## file min/max dates: 1949-10-01 / 2023-09-30

    ## using cached file: /Users/BettyWu/Library/Caches/org.R-project.R/R/rnoaa/noaa_ghcnd/USS0023B17S.dly

    ## date created (size, mb): 2023-10-01 09:59:38.078047 (0.994)

    ## file min/max dates: 1999-09-01 / 2023-09-30

``` r
weather_df
```

    ## # A tibble: 1,914 × 6
    ##    name           id          date        prcp  tmax  tmin
    ##    <chr>          <chr>       <date>     <dbl> <dbl> <dbl>
    ##  1 CentralPark_NY USW00094728 2022-01-01   201  13.3  10  
    ##  2 CentralPark_NY USW00094728 2022-01-02    10  15     2.8
    ##  3 CentralPark_NY USW00094728 2022-01-03     0   2.8  -5.5
    ##  4 CentralPark_NY USW00094728 2022-01-04     0   1.1  -7.1
    ##  5 CentralPark_NY USW00094728 2022-01-05    58   8.3  -0.5
    ##  6 CentralPark_NY USW00094728 2022-01-06     0   5     1.1
    ##  7 CentralPark_NY USW00094728 2022-01-07    97   1.1  -3.8
    ##  8 CentralPark_NY USW00094728 2022-01-08     0  -1    -6.6
    ##  9 CentralPark_NY USW00094728 2022-01-09    25   4.4  -1.6
    ## 10 CentralPark_NY USW00094728 2022-01-10     0   4.4  -4.3
    ## # ℹ 1,904 more rows
…
    ## Rows: 313 Columns: 6
    ## ── Column specification ────────────────────────────────────────────────────────
    ## Delimiter: ","
    ## chr (1): Litter Number
    ## dbl (5): Sex, PD ears, PD eyes, PD pivot, PD walk
    ## 
    ## ℹ Use `spec()` to retrieve the full column specification for this data.
    ## ℹ Specify the column types or set `show_col_types = FALSE` to quiet this message.

``` r
fas_data = left_join(pup_data, litter_data, by = "litter_number") 
fas_data
```

    ## # A tibble: 313 × 14
    ##    litter_number sex   pd_ears pd_eyes pd_pivot pd_walk dose  day_of_tx
    ##    <chr>         <chr>   <dbl>   <dbl>    <dbl>   <dbl> <chr> <chr>    
    ##  1 #85           male        4      13        7      11 Con   7        
    ##  2 #85           male        4      13        7      12 Con   7        
    ##  3 #1/2/95/2     male        5      13        7       9 Con   7        
    ##  4 #1/2/95/2     male        5      13        8      10 Con   7        
    ##  5 #5/5/3/83/3-3 male        5      13        8      10 Con   7        
    ##  6 #5/5/3/83/3-3 male        5      14        6       9 Con   7        
    ##  7 #5/4/2/95/2   male       NA      14        5       9 Con   7        
    ##  8 #4/2/95/3-3   male        4      13        6       8 Con   7        
    ##  9 #4/2/95/3-3   male        4      13        7       9 Con   7        
    ## 10 #2/2/95/3-2   male        4      NA        8      10 Con   7        
    ## # ℹ 303 more rows
    ## # ℹ 6 more variables: gd0_weight <dbl>, gd18_weight <dbl>, gd_of_birth <dbl>,
    ## #   pups_born_alive <dbl>, pups_dead_birth <dbl>, pups_survive <dbl>
…
